Django==1.9.1
django-appconf==1.0.1
django-bower==5.0.4
django-compressor==2.0
django-contact-form==1.2
django-countries==3.4.1
django-registration-redux==1.4
django-widget-tweaks==1.4.1
mysqlclient==1.3.6
nodeenv==0.13.6
pytz==2015.7
rcssmin==1.0.6
rjsmin==1.0.12
six==1.10.0
wheel==0.24.0
